%YAML 1.1
%TAG !u! tag:unity3d.com,2011:
--- !u!78 &1
TagManager:
  serializedVersion: 2
  tags:
  - UI
  - Theme
  - Ball
  - Enemy
  - Top Wall
  - Bottom Wall
  - Right Wall
  - Left Wall
  - Bg1
  - Bg2
  - Score
  - Music
  - Manager
  - Coffee
  - CoffeeSpawner
  layers:
  - Default
  - TransparentFX
  - Ignore Raycast
  - 
  - Water
  - UI
  - 
  - 
  - Post Precessing
  - 
  - 
  - 
  - 
  - 
  - 
  - 
  - 
  - 
  - 
  - 
  - 
  - 
  - 
  - 
  - 
  - 
  - 
  - 
  - 
  - 
  - 
  - 
  m_SortingLayers:
  - name: Background
    uniqueID: 805198595
    locked: 0
  - name: Default
    uniqueID: 0
    locked: 0
  - name: UI
    uniqueID: 4219563101
    locked: 0
