Library\Bee\artifacts\mvdfrm\UnityEngine.Advertisements.ref.dll_F7436F1670C33F21.mvfrm
Library\Bee\artifacts\mvdfrm\UnityEngine.UI.ref.dll_B7EAB4C997F13057.mvfrm
Library\Bee\artifacts\mvdfrm\UnityEngine.AccessibilityModule.dll_987C5095418C10BC.mvfrm
Library\Bee\artifacts\mvdfrm\UnityEngine.AIModule.dll_177DB63F16D162FE.mvfrm
Library\Bee\artifacts\mvdfrm\UnityEngine.AndroidJNIModule.dll_240438B78F93A7BC.mvfrm
Library\Bee\artifacts\mvdfrm\UnityEngine.AnimationModule.dll_D9BED32CBED46062.mvfrm
Library\Bee\artifacts\mvdfrm\UnityEngine.ARModule.dll_D0F07B4273EEC1C7.mvfrm
Library\Bee\artifacts\mvdfrm\UnityEngine.AssetBundleModule.dll_E0A9B431772F37D0.mvfrm
Library\Bee\artifacts\mvdfrm\UnityEngine.AudioModule.dll_7E729A556133D8D4.mvfrm
Library\Bee\artifacts\mvdfrm\UnityEngine.ClothModule.dll_E55AF7503B50B7B8.mvfrm
Library\Bee\artifacts\mvdfrm\UnityEngine.CoreModule.dll_4A5E2DD444AA9915.mvfrm
Library\Bee\artifacts\mvdfrm\UnityEngine.CrashReportingModule.dll_7B2281ECA24B2BCD.mvfrm
Library\Bee\artifacts\mvdfrm\UnityEngine.DirectorModule.dll_A368B426B19E0472.mvfrm
Library\Bee\artifacts\mvdfrm\UnityEngine.dll_DE1917B5EDB9E470.mvfrm
Library\Bee\artifacts\mvdfrm\UnityEngine.DSPGraphModule.dll_A8BA159023FED593.mvfrm
Library\Bee\artifacts\mvdfrm\UnityEngine.GameCenterModule.dll_4E5182D255D498AD.mvfrm
Library\Bee\artifacts\mvdfrm\UnityEngine.GIModule.dll_AFB9FF4CB2804B18.mvfrm
Library\Bee\artifacts\mvdfrm\UnityEngine.GridModule.dll_27CF49C25CFF2F0C.mvfrm
Library\Bee\artifacts\mvdfrm\UnityEngine.HotReloadModule.dll_5B0791329A077BE4.mvfrm
Library\Bee\artifacts\mvdfrm\UnityEngine.ImageConversionModule.dll_E46B935755D2EF6F.mvfrm
Library\Bee\artifacts\mvdfrm\UnityEngine.IMGUIModule.dll_B6D239BC27656CB5.mvfrm
Library\Bee\artifacts\mvdfrm\UnityEngine.InputLegacyModule.dll_71EECF500F20EDC1.mvfrm
Library\Bee\artifacts\mvdfrm\UnityEngine.InputModule.dll_E4E86205D76BFD78.mvfrm
Library\Bee\artifacts\mvdfrm\UnityEngine.JSONSerializeModule.dll_F893D9D140C77146.mvfrm
Library\Bee\artifacts\mvdfrm\UnityEngine.LocalizationModule.dll_622A758117AA975F.mvfrm
Library\Bee\artifacts\mvdfrm\UnityEngine.ParticleSystemModule.dll_CE34CB39105CB75B.mvfrm
Library\Bee\artifacts\mvdfrm\UnityEngine.PerformanceReportingModule.dll_9AAF31CA1E4682D4.mvfrm
Library\Bee\artifacts\mvdfrm\UnityEngine.Physics2DModule.dll_2664C31D5FD157F7.mvfrm
Library\Bee\artifacts\mvdfrm\UnityEngine.PhysicsModule.dll_5C65FEB6E7BFA625.mvfrm
Library\Bee\artifacts\mvdfrm\UnityEngine.ProfilerModule.dll_D5AEED5D4AF78B7F.mvfrm
Library\Bee\artifacts\mvdfrm\UnityEngine.RuntimeInitializeOnLoadManagerInitializerModule.dll_A708BEEBBECD36C0.mvfrm
Library\Bee\artifacts\mvdfrm\UnityEngine.ScreenCaptureModule.dll_127B875655339DA8.mvfrm
Library\Bee\artifacts\mvdfrm\UnityEngine.SharedInternalsModule.dll_687CD22CCD00EABF.mvfrm
Library\Bee\artifacts\mvdfrm\UnityEngine.SpriteMaskModule.dll_377DF56277442E27.mvfrm
Library\Bee\artifacts\mvdfrm\UnityEngine.SpriteShapeModule.dll_FA0AE18C2CD16FDA.mvfrm
Library\Bee\artifacts\mvdfrm\UnityEngine.StreamingModule.dll_8E53C07D0E5C17A0.mvfrm
Library\Bee\artifacts\mvdfrm\UnityEngine.SubstanceModule.dll_6AFED4C659AF15AE.mvfrm
Library\Bee\artifacts\mvdfrm\UnityEngine.SubsystemsModule.dll_A22B5BC4458C163A.mvfrm
Library\Bee\artifacts\mvdfrm\UnityEngine.TerrainModule.dll_76AC7A25BD7DEF13.mvfrm
Library\Bee\artifacts\mvdfrm\UnityEngine.TerrainPhysicsModule.dll_CEAF740C299FB1E8.mvfrm
Library\Bee\artifacts\mvdfrm\UnityEngine.TextCoreFontEngineModule.dll_4E6950B04C5ACEF3.mvfrm
Library\Bee\artifacts\mvdfrm\UnityEngine.TextCoreTextEngineModule.dll_96518721DBDE8811.mvfrm
Library\Bee\artifacts\mvdfrm\UnityEngine.TextRenderingModule.dll_3BBAF9610C6B1D9D.mvfrm
Library\Bee\artifacts\mvdfrm\UnityEngine.TilemapModule.dll_15A8E1A6D53AD01C.mvfrm
Library\Bee\artifacts\mvdfrm\UnityEngine.TLSModule.dll_10747860F24065B9.mvfrm
Library\Bee\artifacts\mvdfrm\UnityEngine.UIElementsModule.dll_A669BD2C48B85231.mvfrm
Library\Bee\artifacts\mvdfrm\UnityEngine.UIElementsNativeModule.dll_8562135288182AE8.mvfrm
Library\Bee\artifacts\mvdfrm\UnityEngine.UIModule.dll_12F1546C731868AA.mvfrm
Library\Bee\artifacts\mvdfrm\UnityEngine.UmbraModule.dll_F947466DEE5A8447.mvfrm
Library\Bee\artifacts\mvdfrm\UnityEngine.UNETModule.dll_DD0475BD91B98E8E.mvfrm
Library\Bee\artifacts\mvdfrm\UnityEngine.UnityAnalyticsModule.dll_EDD43C02BC840957.mvfrm
Library\Bee\artifacts\mvdfrm\UnityEngine.UnityConnectModule.dll_91A0BA27C92ED24B.mvfrm
Library\Bee\artifacts\mvdfrm\UnityEngine.UnityCurlModule.dll_0CDB745E2EE8524F.mvfrm
Library\Bee\artifacts\mvdfrm\UnityEngine.UnityTestProtocolModule.dll_3F73B29D687E8E3D.mvfrm
Library\Bee\artifacts\mvdfrm\UnityEngine.UnityWebRequestAssetBundleModule.dll_FE0339102B68D568.mvfrm
Library\Bee\artifacts\mvdfrm\UnityEngine.UnityWebRequestAudioModule.dll_12AB85A8A4B14D6C.mvfrm
Library\Bee\artifacts\mvdfrm\UnityEngine.UnityWebRequestModule.dll_F60A9B0160C789EE.mvfrm
Library\Bee\artifacts\mvdfrm\UnityEngine.UnityWebRequestTextureModule.dll_81DE4610386F08C1.mvfrm
Library\Bee\artifacts\mvdfrm\UnityEngine.UnityWebRequestWWWModule.dll_6113CC7DCB9E447D.mvfrm
Library\Bee\artifacts\mvdfrm\UnityEngine.VehiclesModule.dll_1B2BADA62BC7D40D.mvfrm
Library\Bee\artifacts\mvdfrm\UnityEngine.VFXModule.dll_915310CFC8ADCF26.mvfrm
Library\Bee\artifacts\mvdfrm\UnityEngine.VideoModule.dll_A37C1EC023C5F479.mvfrm
Library\Bee\artifacts\mvdfrm\UnityEngine.VRModule.dll_65C37AF214D2EE22.mvfrm
Library\Bee\artifacts\mvdfrm\UnityEngine.WindModule.dll_C0AD08FCD5E1177E.mvfrm
Library\Bee\artifacts\mvdfrm\UnityEngine.XRModule.dll_98823DF69E0D3B80.mvfrm
Library\Bee\artifacts\mvdfrm\Unity.Burst.Cecil.dll_10DB5CF76D83AE4C.mvfrm
Library\Bee\artifacts\mvdfrm\Unity.Burst.Cecil.Mdb.dll_4BB4378949AE2489.mvfrm
Library\Bee\artifacts\mvdfrm\Unity.Burst.Cecil.Pdb.dll_6306AFF8C863260C.mvfrm
Library\Bee\artifacts\mvdfrm\Unity.Burst.Cecil.Rocks.dll_643A24C7E3FC1FAC.mvfrm
Library\Bee\artifacts\mvdfrm\Unity.Burst.Unsafe.dll_AB2D030CD66F0887.mvfrm